SHA-256v2/VCD/testBench.vcd
$date
  Tue Dec 28 14:34:03 2021
$end
$version
  GHDL v0
$end
$timescale
  1 fs
$end
$scope module standard $end
$upscope $end
$scope module std_logic_1164 $end
$upscope $end
$scope module numeric_std $end
$upscope $end
$scope module testbench $end
$var reg 1 ! clktb $end
$var reg 1 " rsttb $end
$var reg 1 # enbltb $end
$var reg 1 $ ctstb $end
$var reg 8 % msgtb[7:0] $end
$var reg 256 & dgsttb[255:0] $end
$var reg 1 ' outrtb $end
$scope module hash $end
$var reg 1 ( clk $end
$var reg 1 ) rst $end
$var reg 1 * enbl $end
$var reg 8 + inp[7:0] $end
$var reg 1 , cts $end
$var reg 256 - outd[255:0] $end
$var reg 1 . outr $end
$var reg 512 / pad_to_extd[511:0] $end
$var reg 1 0 pad_to_extr $end
$var reg 1 1 ack $end
$var reg 32 2 ext_to_compd[31:0] $end
$var reg 1 3 ext_to_compr $end
$var reg 1 4 outr_comp $end
$scope module pad256 $end
$var reg 1 5 clk $end
$var reg 1 6 rst $end
$var reg 1 7 enbl $end
$var reg 8 8 inp[7:0] $end
$var reg 1 9 ack $end
$var reg 1 : cts $end
$var reg 512 ; outd[511:0] $end
$var reg 1 < outr $end
$var integer 32 = cnt $end
$var reg 1 > ifin $end
$var reg 1 ? ovf $end
$var reg 1 @ padr $end
$var reg 1 A outri $end
$var reg 1 B o_end $end
$var reg 64 C len[63:0] $end
$upscope $end
$scope module ext256 $end
$var reg 1 D clk $end
$var reg 1 E rst $end
$var reg 1 F enbl $end
$var reg 512 G inpd[511:0] $end
$var reg 1 H inpr $end
$var reg 32 I outd[31:0] $end
$var reg 1 J outr $end
$var reg 1 K ack $end
$var reg 1 L mode $end
$var integer 32 M cnt $end
$comment w is not handled $end
$var reg 32 N s0[31:0] $end
$var reg 32 O s1[31:0] $end
$var reg 32 P rr07[31:0] $end
$var reg 32 Q rr17[31:0] $end
$var reg 32 R rr18[31:0] $end
$var reg 32 S rr19[31:0] $end
$var reg 32 T sr03[31:0] $end
$var reg 32 U sr10[31:0] $end
$var reg 32 V nww[31:0] $end
$upscope $end
$scope module comp256 $end
$var reg 1 W clk $end
$var reg 1 X rst $end
$var reg 1 Y enbl $end
$var reg 32 Z inpd[31:0] $end
$var reg 1 [ inpr $end
$var reg 256 \ outd[255:0] $end
$var reg 1 ] outr $end
$var integer 32 ^ cnt $end
$var reg 32 _ h0[31:0] $end
$var reg 32 ` a[31:0] $end
$var reg 32 a h1[31:0] $end
$var reg 32 b b[31:0] $end
$var reg 32 c h2[31:0] $end
$var reg 32 d c[31:0] $end
$var reg 32 e h3[31:0] $end
$var reg 32 f d[31:0] $end
$var reg 32 g h4[31:0] $end
$var reg 32 h e[31:0] $end
$var reg 32 i h5[31:0] $end
$var reg 32 j f[31:0] $end
$var reg 32 k h6[31:0] $end
$var reg 32 l g[31:0] $end
$var reg 32 m h7[31:0] $end
$var reg 32 n h[31:0] $end
$var reg 32 o s0[31:0] $end
$var reg 32 p s1[31:0] $end
$var reg 32 q maj[31:0] $end
$var reg 32 r t1n[31:0] $end
$var reg 32 s t2[31:0] $end
$var reg 32 t ch[31:0] $end
$var reg 32 u rr02[31:0] $end
$var reg 32 v rr06[31:0] $end
$var reg 32 w rr11[31:0] $end
$var reg 32 x rr13[31:0] $end
$var reg 32 y rr22[31:0] $end
$var reg 32 z rr25[31:0] $end
$upscope $end
$upscope $end
$scope module vect $end
$var reg 256 { inpd[255:0] $end
$var reg 1 | inpr $end
$var reg 1 } cts $end
$var reg 1 !" clk $end
$var reg 1 "" rst $end
$var reg 1 #" enbl $end
$var reg 8 $" outd[7:0] $end
$var integer 32 %" cnt $end
$var reg 1 &" iclk $end
$var reg 1 '" irst $end
$upscope $end
$upscope $end
$enddefinitions $end
#0
0!
0"
1#
1$
bUUUUUUUU %
b0110101000001001111001100110011110111011011001111010111010000101001111000110111011110011011100101010010101001111111101010011101001010001000011100101001001111111100110110000010101101000100011000001111110000011110110011010101101011011111000001100110100011001 &
0'
0(
0)
1*
bUUUUUUUU +
1,
b0110101000001001111001100110011110111011011001111010111010000101001111000110111011110011011100101010010101001111111101010011101001010001000011100101001001111111100110110000010101101000100011000001111110000011110110011010101101011011111000001100110100011001 -
0.
bUUUUUUUUUUUUUUUUUUUUUUUUUUUUUUUUUUUUUUUUUUUUUUUUUUUUUUUUUUUUUUUUUUUUUUUUUUUUUUUUUUUUUUUUUUUUUUUUUUUUUUUUUUUUUUUUUUUUUUUUUUUUUUUUUUUUUUUUUUUUUUUUUUUUUUUUUUUUUUUUUUUUUUUUUUUUUUUUUUUUUUUUUUUUUUUUUUUUUUUUUUUUUUUUUUUUUUUUUUUUUUUUUUUUUUUUUUUUUUUUUUUUUUUUUUUUUUUUUUUUUUUUUUUUUUUUUUUUUUUUUUUUUUUUUUUUUUUUUUUUUUUUUUUUUUUUUUUUUUUUUUUUUUUUUUUUUUUUUUUUUUUUUUUUUUUUUUUUUUUUUUUUUUUUUUUUUUUUUUUUUUUUUUUUUUUUUUUUUUUUUUUUUUUUUUUUUUUUUUUUUUUUUUUUUUUUUUUUUUUUUUUUUUUUUUUUUUUUUUUUUUUUUUUUUUUUUUUUUUUUUUUUUUUUUUUUUUUUUUUUUUUUUUUUUUUU /
00
01
bUUUUUUUUUUUUUUUUUUUUUUUUUUUUUUUU 2
03
04
05
06
17
bUUUUUUUU 8
09
1:
bUUUUUUUUUUUUUUUUUUUUUUUUUUUUUUUUUUUUUUUUUUUUUUUUUUUUUUUUUUUUUUUUUUUUUUUUUUUUUUUUUUUUUUUUUUUUUUUUUUUUUUUUUUUUUUUUUUUUUUUUUUUUUUUUUUUUUUUUUUUUUUUUUUUUUUUUUUUUUUUUUUUUUUUUUUUUUUUUUUUUUUUUUUUUUUUUUUUUUUUUUUUUUUUUUUUUUUUUUUUUUUUUUUUUUUUUUUUUUUUUUUUUUUUUUUUUUUUUUUUUUUUUUUUUUUUUUUUUUUUUUUUUUUUUUUUUUUUUUUUUUUUUUUUUUUUUUUUUUUUUUUUUUUUUUUUUUUUUUUUUUUUUUUUUUUUUUUUUUUUUUUUUUUUUUUUUUUUUUUUUUUUUUUUUUUUUUUUUUUUUUUUUUUUUUUUUUUUUUUUUUUUUUUUUUUUUUUUUUUUUUUUUUUUUUUUUUUUUUUUUUUUUUUUUUUUUUUUUUUUUUUUUUUUUUUUUUUUUUUUUUUUUUUUUUUUU ;
0<
b0 =
0>
0?
0@
0A
0B
b0000000000000000000000000000000000000000000000000000000000000000 C
0D
0E
1F
bUUUUUUUUUUUUUUUUUUUUUUUUUUUUUUUUUUUUUUUUUUUUUUUUUUUUUUUUUUUUUUUUUUUUUUUUUUUUUUUUUUUUUUUUUUUUUUUUUUUUUUUUUUUUUUUUUUUUUUUUUUUUUUUUUUUUUUUUUUUUUUUUUUUUUUUUUUUUUUUUUUUUUUUUUUUUUUUUUUUUUUUUUUUUUUUUUUUUUUUUUUUUUUUUUUUUUUUUUUUUUUUUUUUUUUUUUUUUUUUUUUUUUUUUUUUUUUUUUUUUUUUUUUUUUUUUUUUUUUUUUUUUUUUUUUUUUUUUUUUUUUUUUUUUUUUUUUUUUUUUUUUUUUUUUUUUUUUUUUUUUUUUUUUUUUUUUUUUUUUUUUUUUUUUUUUUUUUUUUUUUUUUUUUUUUUUUUUUUUUUUUUUUUUUUUUUUUUUUUUUUUUUUUUUUUUUUUUUUUUUUUUUUUUUUUUUUUUUUUUUUUUUUUUUUUUUUUUUUUUUUUUUUUUUUUUUUUUUUUUUUUUUUUUUUUUU G
0H
bUUUUUUUUUUUUUUUUUUUUUUUUUUUUUUUU I
0J
0K
1L
b0 M
bUUUUUUUUUUUUUUUUUUUUUUUUUUUUUUUU N
bUUUUUUUUUUUUUUUUUUUUUUUUUUUUUUUU O
bUUUUUUUUUUUUUUUUUUUUUUUUUUUUUUUU P
bUUUUUUUUUUUUUUUUUUUUUUUUUUUUUUUU Q
bUUUUUUUUUUUUUUUUUUUUUUUUUUUUUUUU R
bUUUUUUUUUUUUUUUUUUUUUUUUUUUUUUUU S
b000UUUUUUUUUUUUUUUUUUUUUUUUUUUUU T
b0000000000UUUUUUUUUUUUUUUUUUUUUU U
bXXXXXXXXXXXXXXXXXXXXXXXXXXXXXXXX V
0W
0X
1Y
bUUUUUUUUUUUUUUUUUUUUUUUUUUUUUUUU Z
0[
b0110101000001001111001100110011110111011011001111010111010000101001111000110111011110011011100101010010101001111111101010011101001010001000011100101001001111111100110110000010101101000100011000001111110000011110110011010101101011011111000001100110100011001 \
0]
b0 ^
b01101010000010011110011001100111 _
b01101010000010011110011001100111 `
b10111011011001111010111010000101 a
b10111011011001111010111010000101 b
b00111100011011101111001101110010 c
b00111100011011101111001101110010 d
b10100101010011111111010100111010 e
b10100101010011111111010100111010 f
b01010001000011100101001001111111 g
b01010001000011100101001001111111 h
b10011011000001010110100010001100 i
b10011011000001010110100010001100 j
b00011111100000111101100110101011 k
b00011111100000111101100110101011 l
b01011011111000001100110100011001 m
b01011011111000001100110100011001 n
b11001110001000001011010001111110 o
b00110101100001110010011100101011 p
b00111010011011111110011001100111 q
b10110000111011011011110111010000 r
b00001000100100001001101011100101 s
b00011111100001011100100110001100 t
b11011010100000100111100110011001 u
b11111101010001000011100101001001 v
b01001111111010100010000111001010 w
b00110011001110110101000001001111 x
b00100111100110011001110110101000 y
b10000111001010010011111110101000 z
b0110101000001001111001100110011110111011011001111010111010000101001111000110111011110011011100101010010101001111111101010011101001010001000011100101001001111111100110110000010101101000100011000001111110000011110110011010101101011011111000001100110100011001 {
0|
1}
0!"
0""
1#"
bUUUUUUUU $"
b0 %"
0&"
0'"
#5000000
1!
0$
b00000000 %
1(
b00000000 +
0,
15
b00000000 8
0:
1>
1D
1W
0}
1!"
b00000000 $"
1&"
#10000000
0!
0(
05
0D
0W
0!"
0&"
#15000000
1!
1(
b10000000000000000000000000000000000000000000000000000000000000000000000000000000000000000000000000000000000000000000000000000000000000000000000000000000000000000000000000000000000000000000000000000000000000000000000000000000000000000000000000000000000000000000000000000000000000000000000000000000000000000000000000000000000000000000000000000000000000000000000000000000000000000000000000000000000000000000000000000000000000000000000000000000000000000000000000000000000000000000000000000000000000000000000000000000 /
10
15
b10000000000000000000000000000000000000000000000000000000000000000000000000000000000000000000000000000000000000000000000000000000000000000000000000000000000000000000000000000000000000000000000000000000000000000000000000000000000000000000000000000000000000000000000000000000000000000000000000000000000000000000000000000000000000000000000000000000000000000000000000000000000000000000000000000000000000000000000000000000000000000000000000000000000000000000000000000000000000000000000000000000000000000000000000000000 ;
1<
1@
1A
1B
1D
b10000000000000000000000000000000000000000000000000000000000000000000000000000000000000000000000000000000000000000000000000000000000000000000000000000000000000000000000000000000000000000000000000000000000000000000000000000000000000000000000000000000000000000000000000000000000000000000000000000000000000000000000000000000000000000000000000000000000000000000000000000000000000000000000000000000000000000000000000000000000000000000000000000000000000000000000000000000000000000000000000000000000000000000000000000000 G
1H
1W
1!"
1&"
#20000000
0!
0(
05
0D
0W
0!"
0&"
#25000000
1!
1(
11
15
19
1D
1K
0L
b00000000000000000000000000000000 N
b00000000000000000000000000000000 O
b00000000000000000000000000000000 P
b00000000000000000000000000000000 Q
b00000000000000000000000000000000 R
b00000000000000000000000000000000 S
b00000000000000000000000000000000 T
b00000000000000000000000000000000 U
b10000000000000000000000000000000 V
1W
1!"
1&"
#30000000
0!
0(
05
0D
0W
0!"
0&"
#35000000
1!
1(
00
01
b10000000000000000000000000000000 2
13
15
09
0<
0A
1D
0H
b10000000000000000000000000000000 I
1J
0K
b1 M
b00000000000000000000000000000000 V
1W
b10000000000000000000000000000000 Z
1[
1!"
1&"
#40000000
0!
0(
05
0D
0W
0!"
0&"
#45000000
1!
1(
b00000000000000000000000000000000 2
15
1D
b00000000000000000000000000000000 I
b10 M
b00000000001000000101000000000000 O
b00000000000000000100000000000000 Q
b00000000000000000001000000000000 S
b00000000001000000000000000000000 U
b00000000001000000101000000000000 V
1W
b00000000000000000000000000000000 Z
b1 ^
b01111100000010001000100001001101 `
b01101010000010011110011001100111 b
b10111011011001111010111010000101 d
b00111100011011101111001101110010 f
b00011000110001111110001010100010 h
b01010001000011100101001001111111 j
b10011011000001010110100010001100 l
b00011111100000111101100110101011 n
b00111111010010001111011110100111 o
b10111111110100010101011001111010 p
b01111010000010011010111001000101 q
b01110010010110110111101001010011 r
b10111001010100101010010111101100 s
b10010011000001100100101000101110 t
b01011111000000100010001000010011 u
b10001000011000110001111110001010 v
b01010100010000110001100011111100 w
b01000010011010111110000001000100 x
b00100010001000010011010111110000 y
b01100011111100010101000100001100 z
1!"
1&"
#50000000
0!
0(
05
0D
0W
0!"
0&"
#55000000
1!
1(
15
1D
b11 M
b00000000000000000000000000000000 O
b00000000000000000000000000000000 Q
b00000000000000000000000000000000 S
b00000000000000000000000000000000 U
b00000000000000000000000000000000 V
1W
b10 ^
b10011100111001010110010011010000 `
b01111100000010001000100001001101 b
b01101010000010011110011001100111 d
b10111011011001111010111010000101 f
b00100000000000011011001001010110 h
b00011000110001111110001010100010 j
b01010001000011100101001001111111 l
b10011011000001010110100010001100 n
b10010100001011101111110001101100 o
b00010010100111010010110111101111 p
b01111100000010011110010001000101 q
b11111110101100100111100010100110 r
b00010000001110001110000010110001 s
b01010001000011111110001000101011 t
b00100111001110010101100100110100 u
b01011000100000000000011011001001 v
b01001010110001000000000000110110 w
b00100110100001001110011100101011 x
b10010101100100110100001001110011 y
b00000000110110010010101100010000 z
1!"
1&"
#60000000
0!
0(
05
0D
0W
0!"
0&"
#65000000
1!
1(
15
1D
b100 M
b00100010000000000000100000000000 O
b00101000000000000000000000010000 Q
b00001010000000000000000000000100 S
b00000000000000000000100000010100 U
b00100010000000000000100000000000 V
1W
b11 ^
b11000100101011000101010100100110 `
b10011100111001010110010011010000 b
b01111100000010001000100001001101 d
b01101010000010011110011001100111 f
b01101111110110110010001011111010 h
b00100000000000011011001001010110 j
b00011000110001111110001010100010 l
b01010001000011100101001001111111 n
b10101001010010011010101100111001 o
b01011011011000111110101011011000 p
b11011100101011000100010001000100 q
b11011100011110000001111110101001 r
b10000101111101011110111101111101 s
b00110000000001011110001001010010 t
b10110001001010110001010101001001 u
b11101001101111110110110010001011 v
b01011111010011011111101101100100 w
b10101001001101100010010101100010 x
b10110001010101001001101100010010 y
b11101101100100010111110100110111 z
1!"
1&"
#70000000
0!
0(
05
0D
0W
0!"
0&"
#75000000
1!
1(
15
1D
b101 M
b00000000000000000000000000000000 O
b00000000000000000000000000000000 Q
b00000000000000000000000000000000 S
b00000000000000000000000000000000 U
b00000000000000000000000000000000 V
1W
b100 ^
b01001100001000111110101011001011 `
b11000100101011000101010100100110 b
b10011100111001010110010011010000 d
b01111100000010001000100001001101 f
b00110000001101111110000110110101 h
b01101111110110110010001011111010 j
b00100000000000011011001001010110 l
b00011000110001111110001010100010 n
b00001010111110011011011010011101 o
b11111001100101100000001111100010 p
b11001100101001010110010011000010 q
b00110010011100010001100101110110 r
b11010111100111110001101101011111 s
b00100000000100110011001011110010 t
b11010011000010001111101010110010 u
b11010100110000001101111110000110 v
b00110110101001100000011011111100 w
b01010110010110100110000100011111 x
b10001111101010110010110100110000 y
b00011011111100001101101010011000 z
1!"
1&"
#80000000
0!
0(
05
0D
0W
0!"
0&"
#85000000
1!
1(
15
1D
b110 M
b00000101000010001001010101000010 O
b00000100000000000001000100000000 Q
b00000001000000000000010001000000 S
b00000000000010001000000000000010 U
b00000101000010001001010101000010 V
1W
b101 ^
b01000011011001101111011100110000 `
b01001100001000111110101011001011 b
b11000100101011000101010100100110 d
b10011100111001010110010011010000 f
b11100111110100000110010000011110 h
b00110000001101111110000110110101 j
b01101111110110110010001011111010 l
b00100000000000011011001001010110 n
b00110010100001110110011111110110 o
b00010000011100011011010011101111 p
b01000100001001101111011100100010 q
b01011000100011101100101000111001 r
b01110110101011100101111100011000 s
b00101000000110110110001011110100 t
b00010000110110011011110111001100 u
b01111011100111110100000110010000 v
b10000011110111001111101000001100 w
b10111001100000100001101100110111 x
b10011011110111001100000100001101 y
b11101000001100100000111101110011 z
1!"
1&"
#90000000
0!
0(
05
0D
0W
0!"
0&"
#95000000
1!
1(
15
1D
b111 M
b00000000000000000000000000000000 O
b00000000000000000000000000000000 Q
b00000000000000000000000000000000 S
b00000000000000000000000000000000 U
b10000000000000000000000000000000 V
1W
b110 ^
b00101001001011100011101101000010 `
b01000011011001101111011100110000 b
b01001100001000111110101011001011 d
b11000100101011000101010100100110 f
b01001111011001010100000011111010 h
b11100111110100000110010000011110 j
b00110000001101111110000110110101 l
b01101111110110110010001011111010 n
b11101000101101111100111100000101 o
b01000100110101000000010010001100 p
b01001001001001101111101101000010 q
b00101100000000100000100010100101 r
b00110001110111101100101001000111 s
b01110111010100101110000100011111 t
b10001010010010111000111011010000 u
b11101001001111011001010100000011 v
b00011111010010011110110010101000 w
b11011010000100010100100101110001 x
b10111000111011010000100010100100 y
b10110010101000000111110100100111 z
1!"
1&"
#100000000
0!
0(
05
0D
0W
0!"
0&"
#105000000
1!
1(
15
1D
b1000 M
b01011000000010000000000000000000 O
b01001010101000010000001010000100 Q
b00010010101010000100000010100001 S
b00000000000000010100001000100101 U
b01011000000010000000000000000000 V
1W
b111 ^
b11110000001000000101010110010000 `
b00101001001011100011101101000010 b
b01000011011001101111011100110000 d
b01001100001000111110101011001011 f
b10000010111011011110000001101111 h
b01001111011001010100000011111010 j
b11100111110100000110010000011110 l
b00110000001101111110000110110101 n
b00010001110110011101011110100110 o
b11000101000010111101110111111100 p
b01100001001001100111011100010000 q
b01011100101110010000010000101011 r
b01110011000000000100111010110110 s
b01100111011101010100010001111010 t
b00111100000010000001010101100100 u
b10111110000010111011011110000001 v
b00001101111100000101110110111100 w
b10101100100001111000000100000010 x
b10000001010101100100001111000000 y
b01110110111100000011011111000001 z
1!"
1&"
#110000000
0!
0(
05
0D
0W
0!"
0&"
#115000000
1!
1(
15
1D
b1001 M
b00000000001000000101000000000000 O
b00000000000000000100000000000000 Q
b00000000000000000001000000000000 S
b00000000001000000000000000000000 U
b00000000010000001010000000000000 V
1W
b1000 ^
b01111010110101011011000110110110 `
b11110000001000000101010110010000 b
b00101001001011100011101101000010 d
b01000011011001101111011100110000 f
b01010011111110010100110111001011 h
b10000010111011011110000001101111 j
b01001111011001010100000011111010 l
b11100111110100000110010000011110 n
b01000101110000000110001100101011 o
b01101000100000110111111110110111 p
b01111000001001000011000110010010 q
b01011111010000010010010001010000 r
b10111101111001001001010010111101 s
b00001110111011010100000001111011 t
b10011110101101010110110001101101 u
b00101101010011111110010100110111 v
b10111001011010100111111100101001 w
b10001101101100111101011010101101 x
b01010110110001101101100111101011 y
b11111100101001101110010110101001 z
1!"
1&"
#120000000
0!
0(
05
0D
0W
0!"
0&"
#125000000
1!
1(
15
1D
b1010 M
b00000000000101100010010100000101 O
b00000000000000000010110000000100 Q
b00000000000000000000101100000001 S
b00000000000101100000001000000000 U
b00000000000101100010010100000101 V
1W
b1001 ^
b11110101001011010110001110100101 `
b01111010110101011011000110110110 b
b11110000001000000101010110010000 d
b00101001001011100011101101000010 f
b01111010101011111100011000011000 h
b01010011111110010100110111001011 j
b10000010111011011110000001101111 l
b01001111011001010100000011111010 n
b11010101111010100110011001010110 o
b11110101000001101110011011011101 p
b11110000001001010111000110110100 q
b00010111010101011000110001000110 r
b11000110000011111101100000001010 s
b11010010111010010110010001101111 t
b01111101010010110101100011101001 u
b01100001111010101011111100011000 v
b11000011000011110101010111111000 w
b00011101001011111010100101101011 x
b10110101100011101001011111010100 y
b01010111111000110000110000111101 z
1!"
1&"
#130000000
0!
0(
05
0D
0W
0!"
0&"
#135000000
1!
1(
15
1D
b1011 M
b01000100000000000001000000000000 O
b01010000000000000000000000100000 Q
b00010100000000000000000000001000 S
b00000000000000000001000000101000 U
b01100110000000000001100000000000 V
1W
b1010 ^
b11101111111010001011111101010001 `
b11110101001011010110001110100101 b
b01111010110101011011000110110110 d
b11110000001000000101010110010000 f
b01010011000001110010001010001001 h
b01111010101011111100011000011000 j
b01010011111110010100110111001011 l
b10000010111011011110000001101111 n
b00100011100010000001011100101110 o
b11110111111101110011100011000111 p
b11111111111011011011001110110101 q
b11001101111001000110100010000000 r
b00100011011101011100101011100011 s
b01010010111111110100111101001010 t
b01111011111110100010111111010100 u
b00100101010011000001110010001010 v
b01010001001010100110000011100100 w
b11111010100011110111111101000101 x
b10100010111111010100011110111111 y
b10000011100100010100010010101001 z
1!"
1&"
#140000000
0!
0(
05
0D
0W
0!"
0&"
#145000000
1!
1(
15
1D
b1100 M
b11010110001000100010010110000000 O
b00010010100000101000000000001011 Q
b11000100101000001010000000000010 S
b00000000000000000000010110001001 U
b11010110001000100010010110000000 V
1W
b1011 ^
b00010101100010111011100100100001 `
b11101111111010001011111101010001 b
b11110101001011010110001110100101 d
b01111010110101011011000110110110 f
b11100010001101100100001111001110 h
b01010011000001110010001010001001 j
b01111010101011111100011000011000 l
b01010011111110010100110111001011 n
b10100010100011101100011001000011 o
b01011001011101010111100010110110 p
b11110101101010011011101100100001 q
b00000111111111100100110100011001 r
b10011000001110001000000101100100 s
b01011010100011111000011010011000 t
b01000101011000101110111001001000 u
b00111011100010001101100100001111 v
b01111001110111000100011011001000 w
b11001001000010001010110001011101 x
b00101110111001001000010001010110 y
b00011011001000011110011101110001 z
1!"
1&"
#150000000
0!
0(
05
0D
0W
0!"
0&"
#155000000
1!
1(
15
1D
b1101 M
b00001111000110011011111111000110 O
b00001100000000000011001100000000 Q
b00000011000000000000110011000000 S
b00000000000110011000000000000110 U
b00010100001000100101010100001000 V
1W
b1100 ^
b11110101010000110100110001000000 `
b00010101100010111011100100100001 b
b11101111111010001011111101010001 d
b11110101001011010110001110100101 f
b11010111111000000111110010010010 h
b11100010001101100100001111001110 j
b01010011000001110010001010001001 l
b01111010101011111100011000011000 n
b01010010011001100111101011011111 o
b00101001001110110011010010010110 p
b11110101110010111011110101000001 q
b01100110000100100011110100111001 r
b01001000001100100011100000100000 s
b11000010001001110100001010001011 t
b00111101010100001101001100010000 u
b01001011010111111000000111110010 v
b10010010010110101111110000001111 w
b01100010000001111010101000011010 x
b00001101001100010000001111010101 y
b11110000001111100100100101101011 z
1!"
1&"
#160000000
0!
0(
05
0D
0W
0!"
0&"
#165000000
1!
1(
15
1D
b1110 M
b01010110010001011111100101011100 O
b00010010110000000110101100010001 Q
b01000100101100000001101011000100 S
b00000000001101011000100010001001 U
b11010110010001011111100101011100 V
1W
b1101 ^
b00100001000000101101001011001101 `
b11110101010000110100110001000000 b
b00010101100010111011100100100001 d
b11101111111010001011111101010001 f
b11001101111111011111111001010010 h
b11010111111000000111110010010010 j
b11100010001101100100001111001110 l
b01010011000001110010001010001001 n
b11010101011000101000100000100001 o
b01111111100100010110000100100000 p
b00110101000000111101100001000001 q
b10111010011110110000000101000111 r
b00001010011001100110000001100010 s
b11100111111000100111110110011110 t
b01001000010000001011010010110011 u
b01001011001101111111011111111001 v
b11001010010110011011111110111111 w
b10010110011010010000100000010110 x
b00001011010010110011010010000100 y
b11111110111111110010100101100110 z
1!"
1&"
#170000000
0!
0(
05
0D
0W
0!"
0&"
#175000000
1!
1(
15
1D
b1111 M
b00010001000000000010000000000000 N
b01100000001000000000000000000000 O
b00000001000000000000000000000000 P
b00101010100001000000101000010001 Q
b00000000000000000010000000000000 R
b01001010101000010000001010000100 S
b00010000000000000000000000000000 T
b00000000000001010000100010010101 U
b11001001001010000010000000000000 V
1W
b1110 ^
b01000101110000000001001110100111 `
b00100001000000101101001011001101 b
b11110101010000110100110001000000 d
b00010101100010111011100100100001 f
b00101011010000100111001010010110 h
b11001101111111011111111001010010 j
b11010111111000000111110010010010 l
b11100010001101100100001111001110 n
b01001100000001001011011111111110 o
b10101011010100010010101010010001 p
b01100101010000100101001011000101 q
b01101011011001111110110001110001 r
b10110001010001110000101011000011 s
b11011101111000000111111000010010 t
b11010001011100000000010011101001 u
b01011000101011010000100111001010 v
b01010010110001010110100001001110 w
b10011101001110100010111000000000 x
b00000000010011101001110100010111 y
b10100001001110010100101100010101 z
1!"
1&"
#180000000
0!
0(
05
0D
0W
0!"
0&"
#185000000
1!
1(
15
1D
b10000 M
b00000000000000000000000000000000 N
b01000011101100000110000010010100 O
b00000000000000000000000000000000 P
b11111100101011100110101100100010 Q
b00000000000000000000000000000000 R
b10111111001010111001101011001000 S
b00000000000000000000000000000000 T
b00000000001101011001000101111110 U
b11000011111100010000000010010100 V
1W
b1111 ^
b10111000100010101111110111011011 `
b01000101110000000001001110100111 b
b00100001000000101101001011001101 d
b11110101010000110100110001000000 f
b00011100110011111010110000111001 h
b00101011010000100111001010010110 j
b11001101111111011111111001010010 l
b11010111111000000111110010010010 n
b00101011000010000001010111000011 o
b00000100100001101011101111001011 p
b00100001100000101101001111001111 q
b10100101110110011010101010101111 r
b01001100100010101110100110010010 s
b11001001011100100111001001010010 t
b11101110001000101011111101110110 u
b11100100011100110011111010110000 v
b10000111001000111001100111110101 w
b11101110110111011100010001010111 x
b00101011111101110110111011100010 y
b01100111110101100001110010001110 z
1!"
1&"
#190000000
0!
0(
05
0D
0W
0!"
0&"
#195000000
1!
1(
b10000000000000000000000000000000 2
15
1D
b10000000000000000000000000000000 I
b10001 M
b00010100000001000100101010101000 N
b00010100001100100011011110111001 O
b00000000000000000100000010100000 P
b00010000000000000110010010010100 Q
b00010100000000000000000000001000 R
b00000100000000000001100100100101 S
b00000000000001000000101000000000 T
b00000000001100100100101000001000 U
b00101000010011001010011101100110 V
1W
b10000000000000000000000000000000 Z
b10000 ^
b10110100000000001000010110110101 `
b10111000100010101111110111011011 b
b01000101110000000001001110100111 d
b00100001000000101101001011001101 f
b01011100101110001110100001100011 h
b00011100110011111010110000111001 j
b00101011010000100111001010010110 l
b11001101111111011111111001010010 n
b01000010101110110101011110111001 o
b11011101011011010100010100010010 p
b10110100100000001001010110110111 q
b11101011001101011111111000011001 r
b11110111001110111110110101110000 s
b00111111110010101011101010110101 t
b01101101000000000010000101101101 u
b10001101011100101110001110100001 v
b00001100011010111001011100011101 w
b00101101101011011010000000000100 x
b00000010000101101101011011010000 y
b01011100011101000011000110101110 z
1!"
1&"
#200000000
0!
0(
05
0D
0W
0!"
0&"
#205000000
1!
1(
b00000000000000000000000000000000 2
15
1D
b00000000000000000000000000000000 I
b10010 M
b00000000000000000000000000000000 N
b10100000011010000000010111000110 O
b00000000000000000000000000000000 P
b10000000010010100110000111111000 Q
b00000000000000000000000000000000 R
b00100000000100101001100001111110 S
b00000000000000000000000000000000 T
b00000000001100001111110001000000 U
b00000110100010000110110111000110 V
1W
b00000000000000000000000000000000 Z
b10001 ^
b01000111000011010101010101001010 `
b10110100000000001000010110110101 b
b10111000100010101111110111011011 d
b01000101110000000001001110100111 f
b01110000110101000011101010100111 h
b01011100101110001110100001100011 j
b00011100110011111010110000111001 l
b00101011010000100111001010010110 n
b00001110110001000100010000100100 o
b10100011001100000001100111010101 p
b10110100000010001101010111011011 q
b00101011000011100011100010100110 r
b11000010110011010001100111111111 s
b01011100100110111010110000111011 t
b10010001110000110101010101010010 u
b10011101110000110101000011101010 v
b01010100111011100001101010000111 w
b10101010010100100011100001101010 x
b00110101010101010010100100011100 y
b01101010000111010101001110111000 z
1!"
1&"
#210000000
0!
0(
05
0D
0W
0!"
0&"
#215000000
1!
1(
b00000000001000000101000000000000 2
15
1D
b00000000001000000101000000000000 I
b10011 M
b00000110000001000000100110010000 N
b11000111010101011100001000000110 O
b00000000010001000000000000010000 P
b01010011101100110001010000100110 Q
b00000010000000000000100010000000 R
b10010100111011001100010100001001 S
b00000100010000000000000100000000 T
b00000000000010100001001100101001 U
b10100011011110111111000100010110 V
1W
b00000000001000000101000000000000 Z
b10010 ^
b11011101100110011001101000101011 `
b01000111000011010101010101001010 b
b10110100000000001000010110110101 d
b10111000100010101111110111011011 f
b01100000100011001001001111010011 h
b01110000110101000011101010100111 j
b01011100101110001110100001100011 l
b00011100110011111010110000111001 n
b01000000010100000010010100110000 o
b01110001101001111100101001101101 p
b11010101000010011001010100101011 q
b00001011001010111111000101001001 r
b00010101010110011011101001011011 s
b01111100101101000111101010100011 t
b11110111011001100110011010001010 u
b01001101100000100011001001001111 v
b01111010011011000001000110010010 w
b11010001010111101110110011001100 x
b01100110011010001010111101110110 y
b01000110010010011110100110110000 z
1!"
1&"
#220000000
0!
0(
05
0D
0W
0!"
0&"
#225000000
1!
1(
b00000000000000000000000000000000 2
15
1D
b00000000000000000000000000000000 I
b10100 M
b00000000000000000000000000000000 N
b00111011010110100110000110001110 O
b00000000000000000000000000000000 P
b00110110111000110000001101000100 Q
b00000000000000000000000000000000 R
b00001101101110001100000011010001 S
b00000000000000000000000000000000 T
b00000000000000011010001000011011 U
b01110001011111001011111010010110 V
1W
b00000000000000000000000000000000 Z
b10011 ^
b00110000011001111001100101101010 `
b11011101100110011001101000101011 b
b01000111000011010101010101001010 d
b10110100000000001000010110110101 f
b11010011100110001101110011101010 h
b01100000100011001001001111010011 j
b01110000110101000011101010100111 l
b01011100101110001110100001100011 n
b11011001001011011100110110100111 o
b11111010011110100110010100000001 p
b01010101000011011001100101101010 q
b10111000000000000000000000101011 r
b00101110001110110110011100010001 s
b01100000110011001011001011000111 t
b10001100000110011110011001011010 u
b10101011010011100110001101110011 v
b10011101010110100111001100011011 w
b11001011010100011000001100111100 x
b10011110011001011010100011000001 y
b11001100011011100111010101101001 z
1!"
1&"
#230000000
0!
0(
05
0D
0W
0!"
0&"
